…
## Execute the query
variables <- list(efoId = 'EFO_0001645')
result <- fromJSON(otp_cli$exec(otp_qry$queries$simple_query, variables, flatten = TRUE))$data$disease

Note that the output will be nested, so you may want to reshape the data a bit:

top_targets <- 
  as.data.frame(result$associatedTargets$rows) %>% 
  flatten() %>% 
  rename(overallScore = score) %>% 
  tidyr::unnest(datatypeScores) %>% 
  tidyr::pivot_wider(names_from = "id", values_from = "score")

## # A tibble: 25 x 7
##    overallScore target.id    target.approvedName         literature animal_model
##           <dbl> <chr>        <chr>                            <dbl>        <dbl>
##  1        0.757 ENSG0000013… apolipoprotein E                0.973         0.538
##  2        0.750 ENSG0000007… LDL receptor related prote…     0.580         0.492
##  3        0.731 ENSG0000006… guanylate cyclase 1 solubl…     0.0380       NA    
##  4        0.722 ENSG0000016… proprotein convertase subt…     0.967         0.327
##  5        0.684 ENSG0000012… plasminogen                     0.430        NA    
##  6        0.681 ENSG0000017… phosphodiesterase 3A            0.0525       NA    
##  7        0.642 ENSG0000011… 3-hydroxy-3-methylglutaryl…     0.840        NA    
##  8        0.629 ENSG0000015… angiotensin I converting e…     0.940        NA    
##  9        0.627 ENSG0000018… NADH:ubiquinone oxidoreduc…    NA            NA    
## 10        0.617 ENSG0000007… prostaglandin-endoperoxide…     0.359        NA    
## # … with 15 more rows, and 2 more variables: genetic_association <dbl>,
## #   known_drug <dbl>
…
